plant_name,state,city,serviceable_city,address,Created_by,updated_by,status
paras1,1,1,"[1,2]",adresss1,1,1,1
paras2,1,1,"[1,2]",adresss2,1,1,1
paras3,1,1,"[1,2]",adresss3,1,1,1
paras4,1,1,"[1,2]",adresss4,1,1,1
paras5,1,1,"[1,2]",adresss5,1,1,1
paras6,1,1,"[1,2]",adresss6,1,1,1
paras7,1,1,"[1,2]",adresss7,1,1,1
paras8,1,1,"[1,2]",adresss8,1,1,1
paras9,1,1,"[1,2]",adresss9,1,1,1
paras10,1,1,"[1,2]",adresss10,1,1,1
paras11,1,1,"[1,2]",adresss11,1,1,1
paras12,1,1,"[1,2]",adresss12,1,1,1
paras13,1,1,"[1,2]",adresss13,1,1,1
paras14,1,1,"[1,2]",adresss14,1,1,1
paras15,1,1,"[1,2]",adresss15,1,1,1
paras16,1,1,"[1,2]",adresss16,1,1,1
paras17,1,1,"[1,2]",adresss17,1,1,1
paras18,1,1,"[1,2]",adresss18,1,1,1
paras19,1,1,"[1,2]",adresss19,1,1,1
paras20,1,1,"[1,2]",adresss20,1,1,1
